%YAML 1.1
%TAG !u! tag:unity3d.com,2011:
--- !u!114 &11400000
MonoBehaviour:
  m_ObjectHideFlags: 0
  m_CorrespondingSourceObject: {fileID: 0}
  m_PrefabInstance: {fileID: 0}
  m_PrefabAsset: {fileID: 0}
  m_GameObject: {fileID: 0}
  m_Enabled: 1
  m_EditorHideFlags: 0
  m_Script: {fileID: 11500000, guid: ccf6f4265e81b0947a1c63c9afd12e79, type: 3}
  m_Name: AnthonyDialogue01
  m_EditorClassIdentifier: 
  amount: 3
  npcName:
  - Anthony
  - Anton
  - Anthony
  textpool:
  - 'En? En? Hoe is het gegaan? '
  - Ik mag niet meer helpen aan de tunnel
  - 'Het had erger gekunt, je had uit de kolonie gekickt kunnen worden '
  imagepool:
  - {fileID: 21300000, guid: 2be2ece8a958df3448f8a7c49db6a53d, type: 3}
  - {fileID: -1211479250548420562, guid: c2be9d72a5e264348bbb94b83537a96c, type: 3}
  - {fileID: 21300000, guid: 2be2ece8a958df3448f8a7c49db6a53d, type: 3}
  showInInspector: 0101010000000000
  dialogueFinished: 0
