%YAML 1.1
%TAG !u! tag:unity3d.com,2011:
--- !u!114 &11400000
MonoBehaviour:
  m_ObjectHideFlags: 0
  m_CorrespondingSourceObject: {fileID: 0}
  m_PrefabInstance: {fileID: 0}
  m_PrefabAsset: {fileID: 0}
  m_GameObject: {fileID: 0}
  m_Enabled: 1
  m_EditorHideFlags: 0
  m_Script: {fileID: 11500000, guid: ccf6f4265e81b0947a1c63c9afd12e79, type: 3}
  m_Name: Cutscene01
  m_EditorClassIdentifier: 
  amount: 8
  npcName:
  - Koningin
  - Anton
  - Koningin
  - Anton
  - Koningin
  - Koningin
  - Koningin
  - Anton
  textpool:
  - 'Ik ben zwaar teleurgesteld in je, Anton. '
  - "Ik wou helpen\u2026"
  - 'Door jou helpen is een hele gang in elkaar gestort. '
  - Ik wou iets nieuws proberen.
  - 'Je kan niet zomaar iets nieuws doen, daar moet een plan voor gemaakt worden. '
  - Nu moeten de werkers weer opnieuw beginnen! Het festival is al in een week!
  - Lever je helm in bij Grant. Ik wil je hier niet meer zien!
  - "Dat ging soepel\u2026"
  imagepool:
  - {fileID: 10911, guid: 0000000000000000f000000000000000, type: 0}
  - {fileID: 21300000, guid: 05b6dbdfaf692c444a563ae10a2ef414, type: 3}
  - {fileID: 10911, guid: 0000000000000000f000000000000000, type: 0}
  - {fileID: 21300000, guid: 2be2ece8a958df3448f8a7c49db6a53d, type: 3}
  - {fileID: 10905, guid: 0000000000000000f000000000000000, type: 0}
  - {fileID: 10905, guid: 0000000000000000f000000000000000, type: 0}
  - {fileID: 10905, guid: 0000000000000000f000000000000000, type: 0}
  - {fileID: 21300000, guid: 2be2ece8a958df3448f8a7c49db6a53d, type: 3}
  showInInspector: 0000000000000000
