%YAML 1.1
%TAG !u! tag:unity3d.com,2011:
--- !u!114 &11400000
MonoBehaviour:
  m_ObjectHideFlags: 0
  m_CorrespondingSourceObject: {fileID: 0}
  m_PrefabInstance: {fileID: 0}
  m_PrefabAsset: {fileID: 0}
  m_GameObject: {fileID: 0}
  m_Enabled: 1
  m_EditorHideFlags: 0
  m_Script: {fileID: 11500000, guid: ccf6f4265e81b0947a1c63c9afd12e79, type: 3}
  m_Name: Dialogue01
  m_EditorClassIdentifier: 
  amount: 2
  npcName:
  - Anton
  - H
  textpool:
  - 'Wat moet ik nu voor het festival doen? '
  - En? En? Hoe is het gegaan?
  imagepool:
  - {fileID: 21300000, guid: 05b6dbdfaf692c444a563ae10a2ef414, type: 3}
  - {fileID: -8366269728914750798, guid: 0ec11167994320745a3793fde90657ac, type: 3}
  showInInspector: 0101
