%YAML 1.1
%TAG !u! tag:unity3d.com,2011:
--- !u!114 &11400000
MonoBehaviour:
  m_ObjectHideFlags: 0
  m_CorrespondingSourceObject: {fileID: 0}
  m_PrefabInstance: {fileID: 0}
  m_PrefabAsset: {fileID: 0}
  m_GameObject: {fileID: 0}
  m_Enabled: 1
  m_EditorHideFlags: 0
  m_Script: {fileID: 11500000, guid: 4967a78ed04625843a435d7236f68e6e, type: 3}
  m_Name: Stick
  m_EditorClassIdentifier: 
  itemName: Stick
  itemType: 0
  sprite: {fileID: 5856615697719686765, guid: 7c97ca7f782a7f84d8959ea322bc3613, type: 3}
  model: {fileID: 6329158148709259305, guid: 1fd64b1e7b7567943909ce774f2cc6ae, type: 3}
